{
  "Name": "VSProjectsToolkit",
  "Version": "2021.2.14.0",
  "Publisher": "Flakroup",
  "Prerequisites": "Microsoft .NET Framework 4.8 (x86 i x64)",
  "Notice": "Jeśli te składniki nie są zainstalowane, stanie się to automatycznie podczas instalacji programu.",
  "Target": "https://flakstorage.blob.core.windows.net/flakblob/flakapps/FlakApps.Updater/Content/VSProjectsToolkit.Updater.exe",
  "Logo": "https://flakstorage.blob.core.windows.net/flakblob/flakapps/f%20default.png",
  "Screenshot": "../Content/Pictures/VSProjectsToolkit.png",
  "Description": "",
  "UpgradeCode": "edbd1b7e-2429-458b-9f3f-99984eae6093",
  "IsHidden": false,
  "HasContent": false,
  "Changelog": {
    "2021.2.14.0": {
      "Version": "2021.2.14.0",
      "VersionPublishDate": "2021-02-12T17:10:00",
      "Checksum": "cecbd42cc29f6c541c48b5aab29f5ccf",
      "Target": "https://flakstorage.blob.core.windows.net/flakblob/flakapps/VSProjectsToolkit/Packages/VSProjectsToolkit_2021.2.14.0.msi",
      "Changes": [
        "Paczka poprawek stabilizujących"
      ]
    },
    "2020.10.13.0": {
      "Version": "2020.10.13.0",
      "VersionPublishDate": "2020-10-07T10:40:00",
      "Checksum": "9a575e0cc02facd6eadcea706eb1fb0e",
      "Target": "https://flakstorage.blob.core.windows.net/flakblob/flakapps/VSProjectsToolkit/Packages/VSProjectsToolkit_2020.10.13.0.msi",
      "Changes": [
        "Paczka poprawek stabilizujących"
      ]
    },
    "2020.6.12.0": {
      "Version": "2020.6.12.0",
      "VersionPublishDate": "2020-07-07T13:24:00",
      "Checksum": "338338d2d783f34b886811b3d95e4e8d",
      "Target": "https://flakstorage.blob.core.windows.net/flakblob/flakapps/VSProjectsToolkit/Packages/VSProjectsToolkit_2020.6.12.0.msi",
      "Changes": [
        "Dodanie funkcji formatowania plików CS"
      ]
    },
    "2020.6.11.0": {
      "Version": "2020.6.11.0",
      "VersionPublishDate": "2020-07-02T11:38:00",
      "Checksum": "c9e27d0b61e9e1b95f5280502392f78e",
      "Target": "https://flakstorage.blob.core.windows.net/flakblob/flakapps/VSProjectsToolkit/Packages/VSProjectsToolkit_2020.6.11.0.msi",
      "Changes": [
        "Poprawki wydajności",
        "Dodanie adresu strony paczki NuGet"
      ]
    },
    "2020.6.10.0": {
      "Version": "2020.6.10.0",
      "VersionPublishDate": "2020-06-23T14:18:00",
      "Checksum": "bb51f5b3c7e14e7f2db187c8fc30fb9b",
      "Target": "https://flakstorage.blob.core.windows.net/flakblob/flakapps/VSProjectsToolkit/Packages/VSProjectsToolkit_2020.6.10.0.msi",
      "Changes": [
        "Naprawa błędu czytania XAMLi"
      ]
    },
    "2020.6.9.0": {
      "Version": "2020.6.9.0",
      "VersionPublishDate": "2020-06-23T14:01:00",
      "Checksum": "adbb37caebf91fc4d44e9b98ec2b684a",
      "Target": "https://flakstorage.blob.core.windows.net/flakblob/flakapps/VSProjectsToolkit/Packages/VSProjectsToolkit_2020.6.9.0.msi",
      "Changes": [
        "Naprawa reformatowania XAMLi"
      ]
    },
    "1.0.8.0": {
      "Version": "1.0.8.0",
      "VersionPublishDate": "2020-06-17T15:40:00",
      "Checksum": "687e1108fb0c351158107fdafd190291",
      "Target": "https://flakstorage.blob.core.windows.net/flakblob/flakapps/VSProjectsToolkit/Packages/VSProjectsToolkit_1.0.8.0.msi",
      "Changes": [
        "Poprawka błędu otwierania solucji"
      ]
    },
    "1.0.7.0": {
      "Version": "1.0.7.0",
      "VersionPublishDate": "2020-06-16T14:42:00",
      "Checksum": "c2293ca0637830ded3aa571c90ea46f4",
      "Target": "https://flakstorage.blob.core.windows.net/flakblob/flakapps/VSProjectsToolkit/Packages/VSProjectsToolkit_1.0.7.0.msi",
      "Changes": [
        "Poprawka błędu otwierania aplikacji"
      ]
    },
    "1.0.6.0": {
      "Version": "1.0.6.0",
      "VersionPublishDate": "2020-06-16T14:34:00",
      "Checksum": "1fd0a8747b18e7ee0da6adcd9b0ae2f3",
      "Target": "https://flakstorage.blob.core.windows.net/flakblob/flakapps/VSProjectsToolkit/Packages/VSProjectsToolkit_1.0.6.0.msi",
      "Changes": [
        "Poprawka błędu otwierania pliku solucji"
      ]
    },
    "1.0.5.0": {
      "Version": "1.0.5.0",
      "VersionPublishDate": "2020-06-16T13:50:00",
      "Checksum": "c9223e4ed7360d724e1ea54d997213d4",
      "Target": "https://flakstorage.blob.core.windows.net/flakblob/flakapps/VSProjectsToolkit/Packages/VSProjectsToolkit_1.0.5.0.msi",
      "Changes": [
        "Poprawki pomniejszych błędów"
      ]
    },
    "1.0.4.0": {
      "Version": "1.0.4.0",
      "VersionPublishDate": "2020-06-16T13:46:00",
      "Checksum": "45cbc293e519dcce3f41580c84d40aa1",
      "Target": "https://flakstorage.blob.core.windows.net/flakblob/flakapps/VSProjectsToolkit/Packages/VSProjectsToolkit_1.0.4.0.msi",
      "Changes": [
        "Poprawki czytania plików CSPROJ pod Xamarin",
        "Łatki stabilności"
      ]
    },
    "1.0.3.0": {
      "Version": "1.0.3.0",
      "VersionPublishDate": "2019-03-23T18:00:00",
      "Changes": [
        "Poprawki czytania plików VBPROJ.",
        "Obsługa zmiany tematów kolorystycznych"
      ]
    },
    "1.0.2.0": {
      "Version": "1.0.2.0",
      "VersionPublishDate": "2019-02-28T19:00:00",
      "Changes": [
        "Pierwsza stabilna wersja aplikacji pod tą nazwą."
      ]
    }
  }
}